index
…
Data objects

epiprocess::archive_cases_dv_subset$DT |> as_epi_df()

An `epi_df` object, 129,638 x 5 with metadata:
* geo_type  = state
* time_type = day
* as_of     = 2021-12-01

# A tibble: 129,638 × 5
   geo_value time_value version    percent_cli case_rate_7d_av
 * <chr>     <date>     <date>           <dbl>           <dbl>
 1 ca        2020-06-01 2020-06-02       NA               6.63
 2 ca        2020-06-01 2020-06-06        2.14            6.63
 3 ca        2020-06-01 2020-06-07        2.14            6.63
 4 ca        2020-06-01 2020-06-08        2.14            6.63
 5 ca        2020-06-01 2020-06-09        2.11            6.63
 6 ca        2020-06-01 2020-06-10        2.13            6.63
 7 ca        2020-06-01 2020-06-11        2.20            6.63
 8 ca        2020-06-01 2020-06-12        2.23            6.63
 9 ca        2020-06-01 2020-06-13        2.22            6.63
10 ca        2020-06-01 2020-06-14        2.21            6.63
# ℹ 129,628 more rows
…
